StackOverFlow 2023 Analysis
…
continent_data |> 
  arrange(desc(freq))

# A tibble: 183 × 3
# Groups:   Continent [5]
   Continent Country      freq
   <chr>     <chr>       <int>
 1 Americas  USA         18647
 2 Europe    Germany      7328
 3 Asia      India        5625
 4 Europe    UK           5552
 5 Americas  Canada       3507
 6 Europe    France       2933
 7 Europe    Poland       2435
 8 Europe    Netherlands  2383
 9 Oceania   Australia    2078
10 Americas  Brazil       2042
# ℹ 173 more rows
…
